{
	"info": {
		"_postman_id": "c9bae85c-0621-439f-a461-9ed90ab61e19",
		"name": "Capstone-2",
		"schema": "https://schema.getpostman.com/json/collection/v2.1.0/collection.json"
	},
	"item": [
		{
			"name": "User Registration",
			"request": {
				"method": "POST",
				"header": []
			},
			"response": []
		},
		{
			"name": "Admin Registration",
			"request": {
				"method": "POST",
				"header": []
			},
			"response": []
		},
		{
			"name": "Users Login",
			"request": {
				"method": "POST",
				"header": [],
				"body": {
					"mode": "raw",
					"raw": "{\r\n    \r\n}",
					"options": {
						"raw": {
							"language": "json"
						}
					}
				},
				"url": {
					"raw": "localhost:4001/users/login",
					"host": [
						"localhost"
					],
					"port": "4001",
					"path": [
						"users",
						"login"
					]
				}
			},
			"response": []
		},
		{
			"name": "Admin Login",
			"request": {
				"method": "POST",
				"header": [],
				"body": {
					"mode": "raw",
					"raw": "{\r\n    \r\n}",
					"options": {
						"raw": {
							"language": "json"
						}
					}
				},
				"url": {
					"raw": "localhost:4001/users/login",
					"host": [
						"localhost"
					],
					"port": "4001",
					"path": [
						"users",
						"login"
					]
				}
			},
			"response": []
		},
		{
			"name": "Create Product - Admin Only",
			"request": {
				"method": "POST",
				"header": []
			},
			"response": []
		},
		{
			"name": "Retrieve All Products - Admin only",
			"request": {
				"method": "GET",
				"header": []
			},
			"response": []
		},
		{
			"name": "Retrieve all active products",
			"request": {
				"method": "GET",
				"header": []
			},
			"response": []
		},
		{
			"name": "Retrieve single product",
			"request": {
				"method": "GET",
				"header": [],
				"url": {
					"raw": "localhost:4001/products/activeProducts",
					"host": [
						"localhost"
					],
					"port": "4001",
					"path": [
						"products",
						"activeProducts"
					]
				}
			},
			"response": []
		},
		{
			"name": "Updating a Product Information - Admin Only",
			"request": {
				"auth": {
					"type": "bearer",
					"bearer": [
						{
							"key": "token",
							"value": "eyJhbGciOiJIUzI1NiIsInR5cCI6IkpXVCJ9.eyJpZCI6IjYzZDE2NWI0ZDMwNjM1MTBlYzhjNjIyMCIsImVtYWlsIjoiYXllaTEyM0BnbWFpbC5jb20iLCJpc0FkbWluIjpmYWxzZSwiaWF0IjoxNjc0NzEwMzIyfQ.UuI1lenP7CMuMQRpDlLpusiWLumakTfwM-icLVzc7AU",
							"type": "string"
						}
					]
				},
				"method": "PATCH",
				"header": [],
				"body": {
					"mode": "raw",
					"raw": "{\r\n    \"name\": \"Xiaomi Poco M3 Pro 5G\",\r\n    \"description\": \"Budget friendly 5G phone in Xiaomi. Now on Sale!\",\r\n    \"price\": 5000\r\n}",
					"options": {
						"raw": {
							"language": "json"
						}
					}
				},
				"url": {
					"raw": "localhost:4001/products/update/63d1eda8ec3c995761b701c6",
					"host": [
						"localhost"
					],
					"port": "4001",
					"path": [
						"products",
						"update",
						"63d1eda8ec3c995761b701c6"
					]
				}
			},
			"response": []
		},
		{
			"name": "Archiving a product - Admin Only",
			"request": {
				"method": "PATCH",
				"header": []
			},
			"response": []
		},
		{
			"name": "Activating a product - Admin only",
			"request": {
				"auth": {
					"type": "bearer",
					"bearer": [
						{
							"key": "token",
							"value": "eyJhbGciOiJIUzI1NiIsInR5cCI6IkpXVCJ9.eyJpZCI6IjYzZDE2NjI5ZDMwNjM1MTBlYzhjNjIyNSIsImVtYWlsIjoiYXllaTEyMzQ1QGdtYWlsLmNvbSIsImlzQWRtaW4iOnRydWUsImlhdCI6MTY3NDcwOTczNX0.g-T8KCFalA11eiJxAtkcTk-k_G_pVyZtu0o1pG4K3A4",
							"type": "string"
						}
					]
				},
				"method": "PATCH",
				"header": [],
				"url": {
					"raw": "localhost:4001/products/unarchive/63d1eff373b8b472609143c1",
					"host": [
						"localhost"
					],
					"port": "4001",
					"path": [
						"products",
						"unarchive",
						"63d1eff373b8b472609143c1"
					]
				}
			},
			"response": []
		},
		{
			"name": "Deleting a Product - Admin only",
			"request": {
				"method": "DELETE",
				"header": []
			},
			"response": []
		},
		{
			"name": "Retrieve User Details",
			"protocolProfileBehavior": {
				"disableBodyPruning": true
			},
			"request": {
				"auth": {
					"type": "bearer",
					"bearer": [
						{
							"key": "token",
							"value": "eyJhbGciOiJIUzI1NiIsInR5cCI6IkpXVCJ9.eyJpZCI6IjYzZDE2NWI0ZDMwNjM1MTBlYzhjNjIyMCIsImVtYWlsIjoiYXllaTEyM0BnbWFpbC5jb20iLCJpc0FkbWluIjpmYWxzZSwiaWF0IjoxNjc0NzI4ODM2fQ.zT7N-tIvQBmWmVGroWjps_nFUFBfFBQR2qgvl_wSkCM",
							"type": "string"
						}
					]
				},
				"method": "GET",
				"header": [],
				"body": {
					"mode": "raw",
					"raw": "",
					"options": {
						"raw": {
							"language": "json"
						}
					}
				},
				"url": {
					"raw": "localhost:4001/users/details/63d337b85fbbb30178817f7f",
					"host": [
						"localhost"
					],
					"port": "4001",
					"path": [
						"users",
						"details",
						"63d337b85fbbb30178817f7f"
					]
				}
			},
			"response": []
		},
		{
			"name": "Set User to admin - Admin Only",
			"request": {
				"method": "PATCH",
				"header": []
			},
			"response": []
		},
		{
			"name": "Add to cart",
			"request": {
				"method": "POST",
				"header": []
			},
			"response": []
		},
		{
			"name": "Create Order",
			"request": {
				"method": "POST",
				"header": [],
				"url": {
					"raw": "localhost:4001/products/delete",
					"host": [
						"localhost"
					],
					"port": "4001",
					"path": [
						"products",
						"delete"
					]
				}
			},
			"response": []
		},
		{
			"name": "Checkout Order from cart",
			"request": {
				"auth": {
					"type": "bearer",
					"bearer": [
						{
							"key": "token",
							"value": "eyJhbGciOiJIUzI1NiIsInR5cCI6IkpXVCJ9.eyJpZCI6IjYzZDMzN2I4NWZiYmIzMDE3ODgxN2Y3ZiIsImVtYWlsIjoiSm9obkBnbWFpbC5jb20iLCJpc0FkbWluIjpmYWxzZSwiaWF0IjoxNjc0NzkwODkxfQ.8_WNV3xcZJ018GoYlIaQS70boO6ieiPIuRD4n7YU08s",
							"type": "string"
						}
					]
				},
				"method": "POST",
				"header": [],
				"body": {
					"mode": "raw",
					"raw": "",
					"options": {
						"raw": {
							"language": "json"
						}
					}
				},
				"url": {
					"raw": "localhost:4001/cart/checkout/63d35c6c6b4699a1f6e414eb",
					"host": [
						"localhost"
					],
					"port": "4001",
					"path": [
						"cart",
						"checkout",
						"63d35c6c6b4699a1f6e414eb"
					]
				}
			},
			"response": []
		},
		{
			"name": "Remove from cart",
			"request": {
				"method": "DELETE",
				"header": [],
				"url": {
					"raw": "localhost:4001/cart/remove/63d35410162332b2cb7b855f",
					"host": [
						"localhost"
					],
					"port": "4001",
					"path": [
						"cart",
						"remove",
						"63d35410162332b2cb7b855f"
					]
				}
			},
			"response": []
		},
		{
			"name": "Show All Orders - Admin Only",
			"request": {
				"method": "GET",
				"header": []
			},
			"response": []
		}
	]
}